{
  "outThreadCount": 1,
  "startCycle": 1,
  "tempDir": "./temp/",
  "outDir": "./out/",
  "blockSize": "64M",
  "compressedFormat": 0,
  "outputFormat": "S",
  "forceResort": true,
  "keepAllAlnFiles": false,
  "keepAllBarcodes": true
}
